496 7024 8879 475 9015 2821 426 1259 9947 9754 9278 7385 8511 8249 5163 5498 5661 7196 3850 2709 1573 3276 223 6157 1469 1728 5495 5445 7002 4778 1655 825 4407 6970 3507 4889 7745 6746 4851 8285 4738 3858 9620 4817 1435 6145 5263 2417 3159 6209 6691 7889 4477 12 3153 2904 9255 8653 661 1788 6649 8916 3440 9698 1402 8262 8868 6360 9660 5048 9755 2078 9942 6596 3075 4308 3307 3331 5963 8787 7850 6403 5841 1658 6860 9857 1589 2067 2451 2514 1106 1123 1558 4290 1246 4458 1636 2263 7905 5387 3784 8096 9604 9144 9807 6032 4562 6647 589 519 3219 9008 5340 1503 1339 6273 9011 3031 8789 273 6958 6299 1267 1515 894 2209 8405 9529 5435 8642 4388 8921 2293 9688 1302 6442 4488 9037 791 4124 5065 2127 2770 8447 8460 1010 8986 5814 8607 9392 299 6800 5596 9152 3317 1926 3336 3085 2390 861 552 9977 2695 2105 594 8357 6550 1594 439 9025 2745 6278 2784 3921 56 9924 4637 5676 213 2097 8229 2204 5896 7759 7080 5279 4865 1863 3780 2651 5471 798 1495 1599 3689 3608 3462 2040 2726 5637 397 1764 9406 7676 3872 6940 6793 5894 4076 6806 1904 9797 8571 8291 7045 237 4348 9965 5468 9108 849 2721 5281 9408 6710 9848 5215 480 505 2237 362 3893 8896 4810 3392 4234 4623 2169 9006 8419 8239 5234 2728 6116 4253 7451 156 9442 2125 1459 4660 8473 707 1588 3668 4493 3855 8961 1338 2206 6967 628 8593 2623 9197 8103 9229 7702 25 3924 9904 6399 697 2839 1889 1744 2338 4185 6078 5261 6783 876 2820 715 3913 7366 4862 108 3998 9587 4186 5162 372 7330 905 1490 8720 4116 2354 32 1528 7484 5236 3073 9093 9804 3036 79 8237 7308 9683 3111 4695 5144 5583 3860 1095 9968 5758 6766 7929 463 7116 7954 2595 6026 7808 777 637 6127 7580 3966 6865 1460 1549 7197 9770 2525 5825 1543 2717 2934 5412 4618 5292 9254 5056 9720 4164 5643 9405 6516 6013 4172 9188 5560 5723 2643 2447 8038 3126 6898 9842 33 3833 1745 8359 5749 8859 5485 914 7423 6332 8476 6150 7651 456 8551 4272 872 1752 2253 6642 2054 2219 2401 2179 4981 4270 6532 9862 2373 5214 4449 1693 1422 8187 2227 4506 7264 124 4549 6352 3067 6169 3449 4548 4101 3940 5055 5786 7786 5410 2574 2528 3750 8594 3711 5508 3845 868 8505 49 1665 2408 4017 6093 4574 9586 1173 9308 7649 781 1013 1401 6992 7535 8024 9514 5941 1840 8035 2933 9026 3819 5838 9927 8340 1966 5937 9396 5220 2075 3059 7347 2471 5240 8433 8801 5223 2997 665 8086 5285 8892 4069 9658 7162 6359 7203 1609 97 6849 3846 2195 8536 4877 9622 9022 9034 2995 6055 5790 1644 1137 9121 9316 2336 6199 2775 4807 6284 7429 425 9788 2405 9502 
11 2533 6813 3654 9908 8050 3818 6257 3706 7507 1684 4622 
77 574 1643 4746 2083 7066 7841 5 7663 8662 5664 4305 1204 3202 8014 1582 826 3751 4212 3489 9079 7810 9668 7713 4961 9898 6372 4087 6363 5137 9225 6476 2077 2539 2584 7780 9673 6614 4039 7033 4311 1229 9793 8651 1287 6001 354 9385 9429 1329 1858 5877 8193 7268 3233 5081 7710 5314 7616 7652 5630 4686 3703 5245 907 1089 9227 6677 975 8352 8813 159 7589 8713 3609 7151 1357 926 
111 147 1148 865 9078 9235 3687 3474 2313 2186 3765 3713 6004 2120 4392 4546 7090 9543 6175 4460 5770 4583 559 2892 7333 1784 3095 860 923 4610 2572 9764 6997 240 5608 8160 7999 4577 7667 1506 663 9700 912 4832 4582 6568 2427 5197 727 4627 4273 7635 4451 7201 1176 4278 8624 8466 647 5813 8851 3447 2382 1416 8900 8330 3509 927 4520 1934 3718 673 7120 126 1445 4841 4306 6509 5847 651 1111 5151 4188 6369 318 884 2616 3799 6856 2311 2418 8947 6421 5906 7993 1151 2470 1424 762 1473 7468 9779 6056 5002 2165 855 5331 4440 1207 5737 364 9128 
326 9299 3716 2915 2828 1773 959 5157 7501 6925 9740 421 1634 9418 2112 4975 4815 3184 3909 5390 453 142 7056 8682 4340 6524 4853 9774 8072 1482 5910 3116 9377 154 3394 5467 6600 4518 8806 2515 1898 8403 4900 7782 5437 3920 3610 2070 258 7365 3039 5908 863 5728 2326 1147 3922 5141 8280 5134 9834 7913 434 1202 8838 2312 6468 7736 7721 7864 866 7235 7961 5226 1165 1611 9375 8697 1969 8131 1005 7254 455 1408 5928 75 152 7758 5455 3726 9389 9403 608 1917 3264 7195 3785 8449 348 4284 8480 9544 2869 2825 2906 9492 9047 4703 4604 5572 8540 4761 7779 4012 2684 3203 7477 9061 3183 2284 4043 847 6281 1197 4288 1476 1796 438 5798 5558 2374 5848 3443 9158 4578 7812 9151 3520 8534 2228 1087 9328 9440 4075 6712 1038 3901 7300 2798 9635 2155 9753 4018 936 6902 6034 6744 8647 3429 8184 5962 8478 6339 8750 6384 7420 9945 4210 4016 4512 6445 8970 9140 2034 3953 5403 3643 4 8415 9757 9485 9110 3148 13 5038 4119 3519 5619 9751 7110 286 4135 4419 3309 4409 9101 690 8549 7263 4357 2667 512 6527 504 2387 1928 3411 4058 9732 5846 2330 7275 3235 9391 4678 7639 7948 5274 8764 8210 7354 6328 396 5062 4710 2226 2873 3918 5774 3175 9273 2004 7684 4157 1078 9033 7525 3550 3181 2224 2182 1498 4567 6311 4423 7659 3867 119 7027 3946 7430 4299 1862 724 4294 8846 3779 845 6451 3250 8226 4310 8392 4010 2520 8148 112 5533 1186 6133 6668 8506 1740 9540 7069 2183 5381 4508 4314 5019 2143 2327 530 2062 8475 6669 4663 5590 4216 9899 6217 695 2025 850 5654 9985 4282 2558 3549 54 9204 1266 4326 6190 9661 1333 8520 4289 8890 3458 2044 9023 6961 248 6249 6680 4677 3097 7485 3069 9819 3167 374 7005 5980 6869 3320 
64 640 268 4951 7337 4300 8254 8224 8186 7126 19 9827 2624 2466 4553 246 8451 6414 4967 8615 6117 449 4859 8601 8994 164 6635 9958 51 4402 1241 1652 1107 9419 8277 808 1907 3420 3158 813 7973 4931 1054 8557 4472 4247 8670 9651 7163 7267 7599 1049 5247 5029 3719 7439 4133 7323 3961 1762 4968 4183 9693 9189 5670 
73 699 2328 181 1822 851 5419 1335 9028 7021 3466 2288 6064 9509 1924 7879 8497 9805 8243 6259 8968 9473 14 3788 7363 7480 2385 729 3393 6610 2902 4694 8946 6282 6621 9331 1577 9994 3639 744 4113 123 6694 4302 1322 2005 6029 3705 2400 6932 65 3456 8005 538 6347 1735 9236 7075 2432 270 6952 4342 7598 9706 7321 9784 2947 3640 8107 1268 4038 4868 5644 4005 
218 6826 9922 6560 298 7761 5068 1270 3446 5351 6096 3170 4809 9981 540 3943 6632 7755 1153 495 7450 52 2320 9085 3762 5414 6683 2248 4079 7714 2506 3365 3327 6422 5912 5702 8835 8723 5101 8200 8962 1897 3533 6775 91 8852 9058 4828 5399 5370 7486 3377 1200 8495 1215 1550 1436 8331 3156 4790 8855 1671 4519 3292 9813 2681 6080 7037 7179 1230 2458 4291 9484 8146 1537 3666 9010 5682 2626 8898 40 520 6848 3594 5421 2747 6123 5464 9182 7681 7293 6106 4584 9368 5100 2759 7208 8899 4625 6211 1400 3139 1477 502 3070 2842 8910 1812 3359 1987 6899 8481 5791 8256 1245 910 5888 9938 6076 2642 2781 4497 1845 7490 9206 5627 9527 4268 6229 7876 3811 658 3234 7077 5317 1127 3665 9602 4596 5981 7896 8491 2030 8876 6212 7462 7799 900 7247 7216 6779 7359 6085 451 4022 3658 8959 4966 7717 6258 5860 6894 9474 549 9909 4801 7581 9370 5840 1757 5510 5742 7192 1955 5717 1254 2757 7154 9055 1779 9649 5693 1597 487 9153 725 3052 3596 8140 4666 256 9539 3623 2540 6759 5465 5014 7259 3068 3197 2454 5917 3453 2072 4712 6411 5024 8065 7538 6344 6597 8048 7135 1410 3022 5416 6213 7632 2306 
7 9274 7377 5898 8196 9939 8903 9099 
226 2922 4735 7801 2792 887 8212 7449 3211 9852 7255 8585 9879 3297 319 4905 9449 1852 2851 4586 7079 1275 8795 4004 8736 2613 7059 3616 1915 9515 2445 6933 4611 3090 8334 5936 4541 2117 5893 2850 3690 9516 7064 5013 1043 3959 9381 87 9076 2826 6271 5388 5438 940 1568 723 316 4261 6290 9752 5423 7001 3988 978 7565 1001 5705 7052 2578 6010 6215 6234 6816 1115 8543 947 80 7691 6307 1385 3133 5035 9262 3113 969 521 7955 4892 832 822 2976 4503 1032 7361 6533 8045 328 9348 6810 7547 2258 6607 228 6877 9353 175 3500 4907 6279 8796 2697 7624 4439 4339 7407 7218 3142 6497 8912 6206 9794 224 3329 4020 5354 5361 9214 2967 9631 5475 3529 4918 6130 71 3945 2687 4167 7674 2210 8139 8286 7453 5124 5722 3592 7471 5265 3806 1919 9272 4642 7022 2534 1894 2914 8992 3746 7724 1096 5334 8444 4422 1982 5726 7038 8886 2161 1941 7155 5977 3220 9339 934 3168 2615 2285 1083 2026 8784 8164 5210 10 1415 7342 6517 6935 2448 4341 9718 7851 9600 6540 3253 9617 9524 1703 218 5538 9123 8995 2079 5083 9077 1727 921 5453 3782 7013 3388 1737 4086 678 4224 8978 2430 7136 6945 8798 4156 3971 1696 5873 3897 6024 7892 5826 8671 
10 1860 4726 7174 275 8941 8685 3029 7276 9185 5034 
55 6579 8453 908 8098 8168 9726 6401 8341 3010 5098 6778 664 5920 249 2767 7476 2384 5087 5867 5669 5036 7861 1872 7730 4502 4970 161 6147 8631 6574 265 5487 5075 5902 830 9928 7866 6786 6453 1627 5724 1816 5636 4888 623 9455 356 4716 5195 5707 9137 6593 2600 9520 9855 
373 336 6615 5830 7682 950 8734 380 5923 6559 2207 8953 3879 869 6739 3254 5427 9211 4564 2148 8576 7326 6888 2399 4684 2043 2956 4469 4356 2829 6595 4275 4763 2991 4013 2222 7642 9970 6619 6417 7607 8681 1312 8324 733 7885 1343 5102 8980 1171 7912 1094 5957 8665 9925 8437 4752 8176 4714 3587 6658 9234 636 8470 9562 6452 4464 5444 1682 9282 5218 8066 3948 5257 6976 7657 6702 8318 4240 2550 5407 2689 7846 8815 7125 6027 5866 6285 2676 8371 184 2518 4573 1758 2579 9191 2230 5313 3678 2302 7111 5796 5064 2698 5507 8155 8991 2702 6413 4799 5033 6539 2918 1551 6042 6317 1326 8323 1884 1324 705 1334 9894 7502 1721 3694 1851 3601 4034 8430 8672 4601 1699 509 6657 2469 5150 4141 6687 4908 4052 5761 1057 2135 8141 6099 6801 9347 5344 8888 1759 428 6479 5597 5287 7461 8984 5792 5384 6466 6444 6272 546 5506 3380 8580 8845 490 5914 7986 6558 8039 1768 6022 8380 8773 4534 6947 4436 7456 7114 7614 7549 6903 1958 193 2927 9580 7591 7919 6963 3735 4414 6922 5496 3147 2035 1390 6268 7137 537 7185 5988 2455 4347 7833 7785 8499 7695 8157 2744 3119 8406 6426 9579 6667 889 7406 23 8429 6846 7160 6289 7041 8841 6405 4902 4061 614 2968 6507 7008 44 846 8874 3130 4687 7182 2235 3563 5955 4825 3048 2921 561 7940 8902 7901 2233 6968 9608 7312 179 9305 9138 943 4482 1406 8522 6286 6241 6143 9 3360 5341 5969 2789 3296 6513 2945 3444 3266 2446 9639 8071 5031 3932 1382 8848 5392 9628 5188 1298 1964 4643 2810 4555 5213 6068 7720 5160 9477 8283 2733 1494 1530 5642 160 2859 6003 5979 2672 8477 7699 3472 7226 8757 3299 8175 6248 8760 2414 4992 1705 6611 1861 7104 2952 4524 2201 1351 6388 1646 9318 7112 3987 3561 5201 5187 6439 605 3150 8843 824 2281 4691 4572 8556 646 6198 7171 2309 2577 1600 1675 4880 1583 800 3018 5365 3739 1066 4836 1970 1280 7528 1353 259 3155 8064 6880 8914 8232 446 7666 4454 890 1450 5278 472 454 2395 2779 5986 
37 9213 1221 9315 9843 2342 9239 2215 5620 3061 2296 5330 5856 3208 7631 9986 2160 5059 2170 9847 9445 4351 8507 9470 7725 1509 5271 8124 4441 7483 3504 8907 8452 6587 2153 5803 6371 4818 
7 6373 3895 384 1299 1715 4092 2836 
118 5199 3088 4971 7909 8008 5308 8026 2557 8767 7341 5621 4400 2559 5965 9141 6111 6991 6864 9618 5219 2752 9789 3421 9481 7895 3485 5122 4529 9640 1318 8679 7421 2370 3030 8897 8823 9589 9212 2738 8725 2977 964 5025 255 7664 6037 2006 5171 6965 4864 7282 1603 1741 5015 8295 6011 8458 6506 3247 2409 5576 3914 5701 5911 4723 4930 5954 1059 1168 445 1190 539 1973 5764 8856 7388 2397 1264 8471 8570 8526 1411 3334 4954 4325 3347 3662 9424 5807 5543 9483 4570 1456 6170 7290 2554 4209 1831 4800 2764 7748 837 8413 4670 7843 5139 3493 4542 4547 949 3619 4656 9369 2509 1434 1767 1279 5003 
11 6664 4244 7011 2286 1361 1685 8687 2144 1394 4162 4118 
96 8655 6330 7613 5418 478 2410 7732 5401 2196 4649 2501 2283 6987 2308 7567 7319 4418 3395 6237 5302 158 6858 9400 6368 55 369 1806 2480 8404 3807 6402 1156 6949 535 6265 774 9923 8572 2608 3330 5326 3852 5250 6381 9946 6160 8509 6828 3527 466 3239 688 3972 7389 1009 67 3479 8791 8199 8814 6814 2835 3868 8695 909 1754 7242 6195 9625 5316 1673 1020 3697 8639 5266 351 1471 5845 9708 3774 6556 3777 8231 2438 7397 4408 5320 6420 4630 7646 2322 2678 214 8766 5945 7479 
213 9421 1950 786 8935 8559 2981 4235 8192 3684 5044 4168 419 6526 7122 9722 5476 3060 8204 7006 6053 7798 767 677 7727 8171 4089 6543 3835 9253 9321 9859 864 7098 1809 2649 8638 4335 1212 9590 106 1321 891 7583 9205 5523 1753 6207 83 7478 5638 6484 6277 9670 9686 2522 5452 9333 4964 1363 6682 3137 6185 3513 8347 8774 4498 8715 8832 7543 4274 8486 4049 1237 7746 3954 3637 321 2790 1081 7911 7088 2318 59 6180 1817 8214 4475 8272 2800 1932 8983 7765 9500 7394 570 4200 363 9781 7408 114 1426 5609 7211 8966 585 5602 8389 8894 9951 8716 2653 2648 6429 2290 5897 4679 6827 6582 7859 5773 9237 8519 8746 5497 1547 2704 1294 9979 2682 7586 9633 322 4214 6501 3648 6283 6480 1824 2693 3204 4977 4782 3055 8455 1923 8023 3003 8115 2569 4260 6964 7091 7863 2943 9222 9306 2639 7508 7660 8245 7653 8009 8702 2181 4728 3823 3514 4134 3938 3755 4982 6350 360 759 3579 5259 5041 168 8244 185 5080 5861 3174 8317 6754 1559 2809 5544 368 5231 1163 3104 242 2658 2321 4937 7917 85 459 984 9102 2369 3931 4932 8955 4821 2523 203 3625 187 481 7153 7937 
443 38 8918 8749 8356 5732 4151 4804 1959 4312 2938 3552 30 6295 3463 3886 9646 1182 8320 6679 494 4592 7698 4376 8622 7303 9298 4830 9513 9905 8345 3771 9203 5386 9003 5155 5907 3436 968 5329 6954 4251 6608 4590 6465 1873 3874 4528 3564 1288 9546 6109 8355 6514 3709 9024 1439 1144 5327 7744 4331 5623 9112 6474 9643 8825 4276 6244 7212 7669 7831 5960 3566 50 4893 2239 7964 8997 3072 4177 3441 1576 5614 2677 1272 6544 2007 4129 6060 3663 7237 7183 1613 5161 2816 4713 897 9312 8537 1342 6565 5409 801 5844 326 1990 467 6572 9031 5924 6496 1502 7230 2142 7161 2716 758 8104 2755 8302 1067 1035 639 4171 6040 6980 8273 5252 4650 1622 4195 2782 6684 5248 8250 6689 5477 3452 3325 1891 5077 3201 4106 2535 8761 2565 3795 7794 8807 2951 4025 3223 3244 9334 3725 2094 6112 1592 1782 2657 2187 7119 3645 1354 674 4377 9067 9329 7448 2292 6767 1243 6803 1531 5698 6077 3789 6891 3790 8092 9687 3246 9359 4029 375 173 5536 8850 793 6194 5959 8554 7084 525 7816 1441 4838 2580 4812 1869 8579 2640 7417 7958 7930 9084 6817 2191 3516 1167 5398 4301 4427 216 6706 4394 7983 6240 7847 1975 2566 5394 3958 1340 134 9717 3581 5944 4689 4936 489 3826 8797 2050 3769 4051 9345 2776 6319 5905 4190 8930 8228 1590 1075 1273 5143 5355 1512 8019 3606 4915 9379 1132 4884 4232 8821 9767 9801 6306 4073 935 3288 9525 4556 9914 6521 6340 4943 9749 5692 1371 8462 5131 1143 529 8929 7968 4511 8777 1581 8025 2519 9802 5140 7432 245 2773 1109 4705 5727 2570 231 4829 5312 5883 2688 2504 9467 1814 632 8215 8996 6478 5058 1364 9387 3488 7559 6464 4383 9070 1949 5933 4885 253 6005 4365 347 5350 8006 2909 8432 4457 2824 9117 196 8299 6298 3464 3221 2015 1596 6397 4245 6825 6624 180 4349 2746 1341 2138 2416 2246 1832 4774 2088 3798 5541 5579 4492 3903 90 3830 1003 6655 6643 2357 136 4725 9593 8878 2217 2220 9672 5093 474 4537 9217 9736 7262 5973 1393 9098 267 2772 6490 1417 700 5306 5677 4701 9836 7640 7413 497 6432 1377 1251 2632 8926 2974 3693 9340 4657 4969 5769 6717 4560 1548 2277 1584 7452 972 3044 7199 7636 1375 6639 2361 2751 279 9826 5994 1819 9535 751 8297 5099 9870 5909 2852 7474 6716 2975 9750 9959 3293 3400 620 9786 6446 4386 8288 5684 2358 2919 1258 4369 9990 4070 8541 587 7902 
1 6896 
1 4733 
19 9953 166 1711 3568 493 7941 458 34 1177 3045 2960 9591 6336 2344 6102 3555 3016 1228 9689 
222 7766 5286 5710 5264 6047 3427 8181 4730 4208 3631 3578 9071 3822 6482 1065 4840 9893 6310 4845 278 302 9423 8054 2552 1387 1015 5829 9748 5532 3745 8937 6791 7888 7633 6226 9264 1292 3314 1593 5198 9884 9565 4071 4413 7554 2386 3017 9154 7675 1331 3415 4870 675 8901 5032 7953 578 6713 2481 5243 4764 5595 8981 8020 740 8792 5298 827 5996 1836 352 1911 3273 1231 9581 7729 2607 6438 7609 7747 3585 4046 9145 2260 1271 7820 6140 2045 4159 7438 1386 6906 6700 4193 5631 8737 2419 8804 7890 5348 4044 4780 5612 2680 3251 442 7454 8623 1244 6953 2486 6205 7424 766 366 7249 7357 6914 3582 9558 4060 6377 1086 212 3339 4093 9122 94 2700 6833 3805 4856 1391 1332 5466 1169 8775 9286 6129 28 6797 8523 1072 4322 4952 8329 3531 8810 4949 7405 7555 5745 41 3615 6018 820 4128 9993 5431 9671 5950 5651 720 7610 3670 7384 3622 8074 3480 4283 4105 1063 941 6913 1325 9183 3350 7938 5371 7757 4587 1178 2713 2536 2961 7228 4067 2363 8755 9111 8240 5599 812 7574 3306 8932 378 3843 3599 4002 5900 8794 9049 8307 1538 9616 5582 1933 1373 962 7694 5322 5449 8047 1466 2478 4269 9277 2503 5499 1444 3778 
190 4513 5479 1359 4914 6990 20 9243 9849 1257 8154 9576 3193 1046 7545 3512 5735 1360 3710 5678 7440 3028 8969 2853 3967 5369 5009 7046 8488 8500 6333 7210 9806 1578 5203 1751 7105 3969 3074 768 6164 7393 5550 5512 3345 5260 873 5020 5752 1100 1818 9293 2512 5901 1669 182 1211 8093 7436 3279 1336 9758 1837 3262 1645 21 8863 8494 6845 8584 8553 2834 6829 6108 3677 2114 6631 6504 1180 1021 4437 7026 6650 795 745 8634 5304 9691 9430 4262 3567 8976 4805 5634 9791 93 2265 5501 5554 6921 8895 8822 5119 3014 9902 1141 9260 4962 8562 6944 3078 1877 4532 4353 7957 9733 5663 9050 1620 981 7800 2517 5926 415 5547 689 7738 1601 8836 875 343 6870 7723 4072 3080 1475 7207 7036 9910 5932 9873 2234 404 1050 195 1880 8728 8603 6095 591 9309 8617 3508 4047 8046 3473 9937 4785 1572 6292 1135 1888 9115 1914 2832 5235 2743 3200 6641 3816 1097 8172 5303 4100 5364 2022 3422 1250 4221 9287 5347 9444 7767 7883 999 1368 5615 416 8862 4320 3099 
91 6796 4958 8759 4696 8365 18 1556 880 8560 5112 9960 1615 1761 6409 576 6546 3362 9386 7345 987 8887 9601 1518 9330 8435 107 3189 683 9595 2343 9296 4384 381 6107 1484 6135 2272 2074 2104 7716 6461 1930 6154 2889 3096 5227 8308 2786 5718 9567 8041 3187 7626 9472 9082 9297 9599 1487 3455 2348 8972 9371 708 1314 9410 4757 1316 1587 6937 2011 6184 2844 5016 8493 5078 8399 5843 264 6293 2449 5047 9407 8242 2037 1667 7845 2843 5142 5660 1369 9435 
90 2036 6626 2101 8167 9388 9511 5601 6851 9479 1344 6878 1092 7869 2304 2214 8441 701 6364 2796 9146 7789 9367 8967 942 8707 5408 807 2516 3887 6459 2013 3553 6747 4009 3559 2041 3605 1828 6941 8641 7503 1886 7495 2100 4474 2080 7712 7302 8663 7086 6274 1076 9716 7181 3817 2627 8717 8136 2645 9624 9247 749 8414 8073 22 6757 2634 3515 4881 2737 8109 5097 3122 382 2985 990 8130 9446 8928 6267 4452 4258 1971 9436 4756 7709 5397 7830 4334 7051 
164 1523 9043 5216 9966 7988 3748 7783 4287 1136 6457 8298 9573 1922 7472 5373 2599 6440 2042 7142 3927 9156 1242 2769 9971 6571 1864 7124 4077 522 3160 3736 7381 6748 7688 4844 9100 6069 3664 6315 423 6561 122 7704 2156 4509 7148 4727 9092 2244 903 7860 5772 2877 6046 667 1672 7788 1717 7149 6523 5741 491 9192 200 8840 1736 2575 1965 5809 1309 1328 4516 1365 3560 2314 6471 7244 7500 1542 4426 7857 7974 4895 432 2453 1028 1398 3878 8501 960 7630 2484 1629 5489 7650 2422 7292 9929 9611 3186 8949 3358 6247 8225 3976 8654 2885 7269 4001 6487 8391 5985 3005 856 1433 8152 6322 7383 9148 3775 5353 1916 3356 6972 5656 4651 7760 2118 4589 3667 862 1255 1870 6488 6722 7539 7672 9016 8360 2547 9572 3136 4912 1449 633 3268 7548 1313 5557 3876 5882 9303 8668 7683 3369 8137 1124 3963 7708 3115 6644 5092 5611 3793 
60 5439 7972 2847 5667 9876 9772 7686 2499 6874 2238 4277 3332 1598 3313 8084 7576 8173 5632 9304 2939 4606 7386 7467 6386 917 1458 6139 3929 6434 9042 1702 702 4750 7981 6242 2017 172 139 3418 8061 9184 9336 6693 2317 66 7506 7334 9863 2861 9763 7540 7654 7094 8917 9652 8398 2266 4333 6398 1379 
46 2355 1755 1159 3821 204 3759 4861 4833 7722 8565 2727 5731 2093 5244 3428 9528 3635 6224 4096 4484 8616 3118 9681 996 5685 8704 3006 3738 4755 8163 1940 6818 3546 1748 5305 5935 1372 879 5000 6811 9941 5217 9372 7577 1451 6470 
15 3545 11 151 8753 7550 1847 1011 6724 3708 2630 8127 9810 3125 4263 8805 
210 2563 400 9114 5588 886 8275 3049 5835 3210 3082 4403 9557 5378 2622 6435 2731 1625 6525 2033 6751 4443 5494 1233 9957 568 8709 5005 8911 9496 6824 6152 602 251 8423 6988 6794 6431 840 7647 752 496 1749 4615 1327 2404 101 8169 1485 1419 1539 5565 9027 7996 6836 8765 1938 4674 8650 410 3451 9644 3408 717 4146 9460 8865 4769 1446 6043 2875 9991 6178 486 8326 731 1002 8550 3723 9563 2948 1470 4112 5241 796 2459 9705 2403 1579 5096 7370 117 829 6423 3743 5915 2646 2641 8301 811 9831 6345 1571 1355 6835 1261 8834 1223 5978 8266 4823 2883 5778 8289 871 6850 6063 1984 948 88 1855 99 8516 5074 3837 1566 8632 660 4226 1912 8700 383 9240 819 3108 1527 4658 7047 9518 7431 9696 3105 5045 1612 9363 7170 7458 790 5925 3756 8000 5446 8059 7348 7536 349 7611 2542 2855 604 8782 9650 5815 4732 5837 1865 7969 9713 7065 8581 9931 5030 5293 2276 4420 2172 5747 3671 6320 9133 177 634 8504 4959 3556 4220 4433 3176 1626 7497 5273 7671 3770 4608 3414 8827 3656 6957 4883 1943 4794 6054 7133 6424 9017 4248 2637 5971 1610 721 2650 
44 202 7823 9950 1129 6875 527 8448 5686 1772 682 6498 1051 6686 6820 1418 7592 7245 8004 3633 1707 5123 2305 7742 6576 1061 1238 3424 1195 84 6588 4362 3225 8514 5459 285 5177 9105 7188 8420 518 9130 5094 2250 1248 
104 7499 305 6430 5001 3715 191 1853 2406 1618 8252 276 2136 6499 8094 9920 6939 1479 6075 8428 9327 6725 1654 6236 7378 761 4571 1709 952 7081 5262 109 4645 5299 5324 7301 9120 8788 5818 3603 1295 3322 5998 611 5645 5956 9493 3673 3766 3917 3094 6380 1265 7601 9568 6173 1088 5133 4698 1117 7028 1008 5556 511 3812 3127 685 120 3484 1729 4062 4897 2513 7774 9258 7396 6214 1134 9901 2585 7140 7942 1389 1323 1651 4740 3877 1166 9738 3355 6200 4976 1866 6045 8743 6033 2884 1234 9653 6673 5997 5204 6703 7180 5440 
68 692 4126 1278 4530 1486 7042 6312 2473 8940 4654 2791 5875 4304 4593 6960 6375 9448 7597 5480 8820 8293 6557 2707 654 8436 1370 513 9350 2940 9075 4709 6770 9169 6358 7590 1670 2602 3772 5831 6006 992 5842 5585 4363 4104 5172 6887 6605 4175 1060 9537 9851 9575 9823 209 5289 2714 1461 9943 6021 8864 7260 5483 8830 6342 9147 6998 5246 
361 3701 711 756 4911 6838 3267 82 3808 1104 5170 8630 4984 8698 7939 582 4296 4178 7118 2950 4184 1139 1188 7868 7572 3575 3707 7362 5714 5206 8373 5472 1724 4904 4505 9690 4580 7399 1296 9498 3543 7373 1510 5053 2664 386 1198 1412 6696 4358 4215 7751 2823 1746 127 3827 2307 6387 3854 8919 1091 2734 6983 8648 3620 4243 2596 9874 1218 8942 192 4886 2954 6729 2546 1945 1993 2862 6732 8183 1192 4681 9875 5775 5858 220 3081 4934 7434 955 4486 9830 7100 3724 60 686 7250 2273 8780 8875 6455 7446 1017 9560 4708 3434 5502 1077 2655 2576 3401 1131 3753 482 4242 3132 7951 6536 6590 3265 2264 373 3431 5450 8281 2925 3109 4963 7870 4619 5028 7049 7828 3399 2039 6734 7123 2840 3034 4665 3161 5057 5970 7602 4323 3172 1392 588 1793 5520 8660 5816 1150 3939 1978 8418 8247 1972 8479 1064 9038 2082 7797 6489 4737 6254 8241 9020 3604 5991 6270 6923 391 1560 1885 407 0 4848 3236 9179 3404 309 2076 6708 31 5624 2016 4239 2905 6723 280 6821 9103 3628 9482 5385 7858 1985 3107 2674 3145 9915 4741 7927 7 7368 3831 5106 6609 7593 9163 6769 5967 77 536 3412 1511 4909 5190 8044 2895 9926 7147 691 3164 5584 7099 5374 9439 8960 1878 517 9547 7025 5519 5691 1226 1499 8222 2151 6483 7214 7194 6189 8779 5794 8012 7097 8602 5127 7279 9685 9841 2189 6752 4719 6296 5237 7023 3084 9741 4784 5474 5461 1811 9135 9095 7821 1739 2874 1791 7414 6862 1823 2341 1792 5575 7169 8569 8719 6393 5871 4729 9613 8606 8179 6737 9739 8220 8785 3842 4669 1834 3162 7494 170 1997 6287 3353 6787 9073 2766 7952 2279 3992 7274 7019 5808 2159 3704 4721 2229 9816 1023 2257 8439 7523 4024 8379 6681 4057 9096 4946 377 5725 4550 3981 6859 5729 4854 7662 2 8408 3363 4401 5563 4599 3951 6537 2365 610 2629 1557 2719 3386 389 189 1649 92 9164 4489 653 293 4041 1657 6535 9727 9869 7553 2732 9186 7278 
162 1448 9338 7193 6110 9200 6131 6412 2813 8075 2543 5405 345 2329 5697 5878 3387 5396 9432 7256 162 597 1084 2345 687 8319 2232 4957 4360 167 8043 3652 7466 433 2582 5789 7496 7510 3933 9790 4758 3289 8979 9888 3013 135 6510 3947 4416 9531 6889 98 2797 1249 787 6124 5268 3558 9798 4459 4796 6804 7967 9585 5806 7082 3417 6971 5156 4617 4410 2300 6275 3776 3477 7209 8869 9721 4163 5107 5332 3092 5916 4602 6654 470 5949 3490 1025 7899 6758 3357 8165 8443 1647 8608 7412 4813 2059 3985 4772 174 8610 9180 831 1488 5810 1283 4980 5974 6666 9450 7087 4736 4797 7518 5336 4194 8150 3224 4424 2435 1844 5442 3333 7809 7232 1442 5514 3517 1616 3657 7392 6670 3720 1946 4056 150 1608 143 7689 1396 3695 2983 6172 5635 1236 5641 2202 2958 8265 2197 4795 4759 2548 4667 7143 4802 8872 5592 2109 7509 3562 
154 9934 6528 437 9462 8664 3326 9224 4121 1687 6113 4344 7564 3196 6795 4882 3511 3426 7493 4139 5492 1909 64 9019 2591 8790 9168 8496 8598 6881 9045 4614 8546 9000 6705 2353 9510 6986 6309 8758 3171 4389 6012 1783 9365 9187 284 5184 7063 5853 4744 5524 9839 1213 283 306 7625 1120 1849 485 8102 3935 5169 1666 8676 8410 5200 1807 7048 9021 3838 9362 1047 4775 73 7014 8524 5267 7504 6266 2604 3442 7266 1668 7638 2778 7339 1070 4199 6789 2129 4939 958 6756 6886 2730 205 7959 9664 1427 5367 4476 4879 5899 5356 2391 9737 8597 7522 9837 2894 3101 2592 1260 1720 4373 46 1012 5854 9086 8267 828 355 9919 8159 4734 7353 8484 4136 6799 5578 986 669 235 7822 4045 7775 9004 2686 5943 5528 6134 9422 5720 5938 4869 5008 1901 1607 7571 5629 4711 1352 4393 6228 
62 9190 8985 8238 2871 9052 2692 9744 5193 3984 896 4720 4450 5458 7200 5283 5085 5018 4682 1562 8735 4979 144 4749 7872 7587 8236 9415 6721 9221 3660 4515 883 2018 3351 7887 3908 5300 6515 6985 1875 3721 4517 8013 7314 3832 977 96 3131 2865 1535 7584 1253 1467 5780 6917 9311 300 6193 7679 3910 630 6035 
56 1158 35 7770 6210 3717 803 254 6025 6904 5522 5992 371 8696 3820 1896 8251 3541 5307 4295 5027 8673 6688 4191 7914 2787 2888 1308 8366 8512 6547 3747 2551 8393 6956 6491 3758 111 3524 4974 7922 1838 1472 7305 7894 4771 6103 3205 388 5109 1068 9310 810 2368 8853 1501 5071 
141 8053 9598 7488 4776 7781 7718 8816 8407 7634 5616 3019 4787 9949 7743 970 3041 9376 599 1683 2500 7236 5417 501 4385 6892 6454 241 9390 269 9248 7521 1421 7562 8060 3305 5118 2736 1944 4461 6297 8793 4154 7089 8036 9680 8611 215 234 3801 2174 6617 621 9326 3902 3803 8147 5335 6823 750 693 7144 6671 5406 1152 9553 2064 6731 718 3483 9814 4083 8945 9480 6909 5606 4793 9289 9173 9955 1742 8829 8381 8457 2297 631 9271 2124 919 9912 3152 6163 4327 3043 3270 9434 9360 5574 8416 332 3257 9665 8203 5349 6573 7856 3103 9517 584 7382 2053 6225 6016 3149 2218 4280 4332 4329 333 8490 1920 9980 9699 737 2468 3403 8730 7159 9471 5777 9356 1656 8079 5209 8306 3636 5708 1199 7910 483 8988 9615 
74 7035 5284 7606 1507 2413 2063 4501 8628 6201 227 8529 8924 5463 1541 7297 443 5084 4391 5125 5428 1931 7284 2371 7130 7369 2831 2057 6142 7819 5930 5694 4425 7241 8402 9663 7418 3742 8958 436 7376 2299 1980 3195 7336 7134 4147 3925 2157 6873 8683 469 4579 3794 6867 836 5191 7402 7994 7715 8659 6637 7184 4031 5333 8010 575 6815 7400 4470 2979 9032 2631 988 4372 
12 2636 7838 307 89 7558 7351 8674 4169 3873 5493 5607 8552 
15 7481 1085 4948 7044 9987 5650 230 7605 7070 5488 297 1172 1042 3804 7771 
84 3102 6448 8973 4014 7050 802 5712 6562 3904 3086 5447 6057 361 3632 6155 9178 4094 3570 6115 2443 8656 5822 3880 8382 500 8487 1756 4037 9159 6433 1637 3580 775 2762 4906 5753 9551 1019 5605 8033 9712 7655 3905 7068 7891 9324 7516 5391 1771 225 7219 8871 47 8525 3398 7756 1082 4371 6126 7924 6807 6750 4321 5343 3950 741 2291 1996 3551 5310 3461 3530 5181 359 5716 9812 7007 3278 4685 1203 5633 4130 9913 3407 
132 1384 4132 1175 5135 6727 4059 5238 262 8218 338 6204 9351 4085 3062 2360 5395 7880 1536 8742 303 816 9992 971 2190 6304 53 6485 5291 951 1423 9505 4148 8369 2139 3733 6449 9433 7827 3372 5152 7645 7617 48 888 464 3316 9113 8692 9666 8837 5886 600 238 3936 4659 2811 3869 1455 3038 1289 4286 4646 226 8194 7375 8756 4718 2749 8372 8999 8058 2856 2463 5657 4923 2553 4478 6052 1895 1489 7017 5783 9969 8070 9911 2421 1770 2703 684 8314 3310 2482 8482 3809 7916 3318 6049 4690 8854 6636 315 6084 8689 7071 2269 755 7511 2635 2267 3757 3497 1300 5535 9747 4399 9349 9711 3993 6118 358 5490 2240 9464 6348 5743 1040 7435 6656 4145 6104 281 9199 
1 370 
211 320 1586 1194 541 4108 9325 1014 3071 2223 7840 7034 7204 5136 1440 4849 638 2178 3342 5318 6771 9918 2441 3076 4011 5968 838 853 103 1905 8508 4432 2793 3227 8502 9355 9811 4111 2683 4006 9896 6761 5375 5346 906 5233 6447 1766 5984 799 6545 2367 9503 7398 9220 7340 3937 9803 411 4354 1650 9963 3864 2324 2377 263 8535 4875 9136 5823 2901 9352 1532 8296 9642 8081 4563 8287 9895 7618 3391 8539 3962 3674 1031 5158 2935 2652 6425 7107 3179 6208 5580 3964 9313 4545 7175 7287 7740 859 2848 2760 7824 9487 4455 2150 3583 1101 4431 9684 7731 4114 5382 739 7925 6910 8339 6782 95 1209 2325 7039 1004 1133 4338 7992 6481 2110 3216 3396 6230 4973 7588 1534 6788 3577 7076 9838 448 8082 4180 8417 6415 8384 2838 1276 7855 3416 9566 7582 8422 4878 6316 1953 452 1624 1979 7778 8111 5309 2971 2381 5366 3207 3941 4863 7680 3413 239 7620 6661 3025 3117 6834 615 4616 5337 3242 6740 1868 8770 8110 8018 7643 8800 5518 1007 4468 9775 7881 4319 5164 7360 16 7544 1214 3989 2822 3535 3035 9119 2814 1187 1347 8338 5411 8595 2009 9014 2897 1128 5961 
80 5649 26 3955 2087 9574 8861 5539 3410 4065 882 2212 2167 4773 2963 5804 8644 8627 8933 7568 8361 3128 9654 3862 2298 7213 8397 429 6812 8156 8284 9382 1034 6780 1789 6383 5256 8532 9777 4036 2396 8993 406 1947 3215 8867 2489 2754 994 3571 2527 4834 6303 8956 7457 7310 9769 7966 7251 376 232 6255 2071 2605 4717 9465 4850 9198 8849 9709 9519 8889 6879 6329 8387 5703 6301 4811 3371 7520 7409 
80 3243 7920 3192 317 2955 194 2926 6378 8658 5113 2879 8701 9917 6132 37 2316 5132 6351 8883 6798 7762 6920 8747 9512 7656 2128 3696 7563 5730 4003 5948 69 5952 2507 4103 1999 7433 9559 1274 7427 8922 2090 7447 4874 4222 8744 27 9746 2864 7240 8563 4581 5319 3617 6354 7108 7062 1048 7734 3476 3890 6764 7701 3344 9578 7807 7016 2984 2046 9397 207 8748 1604 9659 5706 666 5820 1555 2739 2048 
1 8100 
136 3503 1900 590 8574 5422 8327 5713 5868 5767 5827 7844 6699 1113 1903 7784 5618 3786 6505 5212 5051 2701 2389 1290 190 2870 1732 515 5090 7976 9952 5069 2175 6186 137 3847 1918 3760 5039 9998 6120 3423 2425 2988 15 8263 4942 3698 3481 7304 794 3015 7947 9577 8279 7442 5224 9542 210 1525 1688 5138 4007 2274 6882 3177 2588 8087 6356 296 5762 2544 5865 6518 9215 6768 5042 340 7395 4138 7156 3996 5067 4852 1808 8271 2380 9982 9550 9256 2047 3432 6781 6436 1526 4767 3206 9373 9890 8844 1937 3968 6394 7246 8530 5221 2460 5481 2216 6974 9301 2158 6220 9999 5205 3730 6366 7073 110 2612 2452 8544 6400 3475 4745 9948 7811 5095 1805 2498 4500 5202 3586 3249 4032 9900 5186 
159 4609 4928 8201 2060 6089 3367 3009 789 4109 823 655 4279 9729 9872 9357 1991 2887 4631 8099 3274 8965 3614 4266 7661 7291 4307 8370 499 2014 821 5066 4743 2282 881 6555 8332 3496 3911 5091 765 5079 72 1974 7415 2346 2073 9538 953 7806 932 2493 7566 7836 6302 9402 4598 5879 4218 6928 8591 4483 5715 4697 2654 74 5995 7886 9380 3974 9223 4098 848 3256 1306 6924 7971 9632 1850 8207 1196 7965 8364 7335 8629 6672 5919 913 4219 8312 8621 1621 8987 8680 3655 6542 6792 2735 9715 9619 6389 6776 9412 5192 2659 9242 9989 5509 1055 8718 2003 2741 8257 3058 8884 8811 4473 9341 498 531 5801 431 6404 6192 9820 6675 8483 5869 8052 7015 4428 4876 2966 606 8395 1893 1797 2924 8121 1640 8027 488 7000 7401 402 2973 153 4751 965 2941 983 8234 7146 1000 5704 4613 211 4211 6630 2545 
274 4525 629 2379 6589 42 8465 6365 7083 9555 6842 9782 1580 2567 5022 7286 9795 4575 403 8438 3865 6376 290 7349 6765 8688 6966 5689 5594 8954 7719 4770 3544 7608 6374 8600 1520 1775 4533 121 7658 9825 2929 5148 9614 6428 9443 7956 7443 4872 8564 4781 4395 3783 1661 586 8368 6090 8135 7220 4265 9906 9656 2502 3501 2164 2568 8464 7344 7677 9322 9193 7040 8367 9294 4297 5486 9361 2275 9488 1956 4019 2140 9549 9808 6994 7979 221 7750 9856 1189 4380 9627 8613 3486 4843 7903 3281 9768 9636 8881 5617 3498 1881 8567 9844 9275 1570 3405 4607 9383 6665 1983 3185 5049 3626 3324 5647 9251 3749 1208 8350 450 1463 9773 2289 676 8678 916 5833 325 1676 7313 4035 5451 6912 9090 9131 5115 1951 1125 5159 2802 3942 8711 979 2858 2208 3467 3057 7575 1781 6288 271 8812 5799 8604 9232 6125 609 3510 1659 1563 9588 128 6165 6138 2103 5017 1006 4653 8322 1138 5975 6931 7569 2270 8667 7322 1307 6774 3882 5443 8145 1191 9667 6294 3891 5768 1146 3944 308 4246 5076 2718 2742 1776 7628 3841 7473 1121 1183 198 2562 2807 1374 1508 9259 7252 2198 7239 1437 2980 7991 4467 2549 770 8952 5966 2115 8732 7644 2203 3098 4692 4994 9865 1813 9800 7790 8216 8260 5108 8063 1103 5680 7741 8401 9246 1954 1130 7018 8412 4507 956 3448 8614 4285 1524 9109 2628 6645 9088 8396 5525 4816 6349 9533 7552 8957 4153 3824 4361 8754 8206 898 3492 5254 9398 9858 5687 730 2898 5473 9607 
219 4479 9041 3889 9143 2785 4355 8426 9458 989 4648 7997 291 8474 8219 2833 4600 3468 4672 1691 314 1474 1794 5469 7265 3089 9172 9497 29 9457 5430 2089 9860 8431 4182 2334 9162 9584 712 3661 2868 7060 3621 8446 4000 6640 2001 8217 7703 1016 818 3245 104 1102 4950 9530 4953 1795 2638 878 8666 5402 2131 3866 1227 6379 3033 1428 4027 7115 1080 1184 129 3651 2583 4205 2969 7325 7546 2611 7813 980 6832 6144 780 8101 7984 4160 5927 8055 8253 8637 441 7288 5569 6599 7295 4700 5174 8067 7317 8799 4021 6221 7796 3607 1453 5154 3290 7835 6581 8459 1561 2805 2052 558 9605 2845 7320 5719 4316 7726 1045 4527 5964 4030 9210 6305 1118 3144 6390 1899 4675 650 4313 3482 1105 1574 1879 554 6745 4117 8078 5111 8337 8762 9730 7272 681 893 3370 8095 1780 9818 8472 1585 1854 8294 9647 867 9161 186 2665 9266 9337 2866 7231 2221 6785 8166 7281 5658 7444 9404 7243 2903 619 3129 6245 2531 8114 6728 3634 2876 5011 5824 3232 311 2959 7109 5874 7529 6323 9468 6227 2907 2706 1500 8235 292 2931 1815 4634 922 7422 8170 2303 3800 4898 5744 171 563 8839 1232 1239 342 7356 7943 476 9040 
187 1546 6326 2173 2711 9954 2911 4786 4921 7189 2119 9150 2581 8738 7928 8693 8190 9796 155 1478 6101 5887 1829 3522 188 7705 6676 3425 1069 7854 5359 8088 3298 870 2462 2436 5021 6059 3518 6715 1356 5760 2756 5362 834 2349 1848 6855 2259 3237 6534 4227 6009 7963 5733 616 7172 9291 6777 2180 8870 8589 4531 3813 9594 6742 5211 1468 6567 4569 294 3252 414 6168 1743 4127 8304 1747 3712 1681 3928 5482 649 4415 5383 7619 771 9815 9745 7141 3051 583 8528 3642 7332 8158 4641 301 5272 1240 4140 36 4315 1154 2609 2477 8646 9029 8105 399 806 6760 9760 8276 6934 7773 9335 9679 8021 4664 524 9428 5129 3381 9054 7299 9742 9883 3919 635 140 2474 3366 102 3258 2505 9828 8120 8383 6951 5890 2356 2699 9478 6854 5043 2019 9734 7498 9366 2494 7029 7465 350 5934 4230 4536 9209 8211 4298 4122 997 6893 2923 2827 7852 648 2472 3526 8936 5648 3140 5010 4406 533 5880 8618 6741 7570 3000 1346 4986 2108 6114 6082 4187 2252 6119 
71 4217 357 3437 2774 5054 3349 9499 5052 9669 4858 5153 4256 4176 6088 6663 9118 5622 5603 911 7978 4965 4033 9354 3618 4558 2058 132 2679 5225 4189 3532 8561 1277 694 6753 2890 6094 9523 1642 7665 1820 4857 5527 4847 8174 7445 3525 9167 8375 4225 8040 3459 4988 7113 779 4487 8022 3409 1090 5070 9867 3495 8421 2593 9983 9087 9083 4603 4827 43 8521 
141 9035 6996 3321 6410 9384 5600 569 548 9157 3166 2937 9629 1170 1967 5126 6553 2900 3382 8573 3934 4054 3997 9921 8739 6019 9425 3960 9290 2225 5785 5548 7280 8636 2710 78 9504 2111 5295 401 8034 312 4514 4494 8177 2529 8990 3261 5448 6179 8877 4082 9719 2818 3647 3091 8998 5872 7595 393 5851 9068 5368 5072 2437 1638 1303 8321 4779 6222 3143 6182 4557 310 854 329 1826 2262 9548 6223 3990 7145 6338 6062 809 9125 944 5811 2691 7561 3450 4693 5006 9241 1763 4063 3087 9399 7777 7739 9809 1631 2364 460 7117 3641 2990 2694 7298 3383 4434 974 183 6943 857 627 9882 430 4896 2815 1777 3012 5189 3312 2461 6493 2748 1018 3454 8445 4197 8425 2863 5425 877 8824 3046 3020 773 4170 3315 9288 
1 7329 
176 7706 5738 6232 9081 244 9878 6977 3222 8089 1041 1304 3304 9766 176 6973 2255 3054 6861 3768 2603 5951 422 6467 6714 9411 9046 2987 5515 5591 8049 289 8377 7316 4040 8303 8246 4566 6577 1976 6586 7832 2942 2497 2495 8596 1431 2378 4238 8467 7464 1206 365 7437 5275 9056 8112 4081 858 8227 5023 7585 3659 5864 145 7735 3379 5531 5415 1619 5876 902 4704 8362 5360 6508 565 5763 1366 8923 1856 1376 1648 7542 141 9447 2176 1293 1425 3402 1457 2376 4249 1155 3839 670 3792 7364 2301 4901 2780 9641 1902 763 3975 9279 2982 5456 7296 8400 2133 4760 6324 7103 8116 1349 9891 6500 2352 7085 2020 335 7673 9799 2310 1114 5666 8162 3341 6993 4350 3241 4374 9374 7573 1939 6161 2541 4466 6936 8030 7578 2439 8726 760 3438 9623 7977 9002 6929 1995 17 2647 8905 4683 2656 3683 4842 2123 7127 3612 1686 3141 1867 2479 4543 8690 9284 5372 2725 6633 8609 8125 6098 8011 7982 1219 
159 7787 1890 9116 9427 3859 1690 6570 6251 1936 6256 9069 4499 7749 3397 3646 3491 4612 9176 6662 9907 9877 9426 8001 6188 2998 57 7804 6260 8533 9678 4947 5004 6718 8197 8390 9065 9059 5857 4390 8733 8619 6391 9062 4068 8300 4149 596 5542 8915 8989 746 8411 7380 6979 3894 7191 8587 3406 2994 8578 8386 6809 4668 9257 468 4088 2817 4544 8694 1804 9724 3930 4125 3348 2740 9091 3686 9714 9175 1591 6233 8635 657 6136 930 367 7530 2031 4485 8703 5699 2426 6837 566 9596 1602 713 3752 5128 1714 8515 1269 3773 2849 2690 1821 5537 4873 1662 3764 2456 3857 4792 3364 8691 1553 9219 2812 9508 4814 379 4990 252 8769 5884 6519 7873 8344 3499 4707 420 1179 7187 1052 3066 4165 957 2496 2268 5672 3008 8353 2012 5953 7217 4754 3259 6564 2633 1876 8819 5659 7273 1906 613 3146 9132 8566 852 
233 8727 814 2685 4722 5862 4203 3547 7167 7696 9522 6086 9674 8363 6749 3900 7648 785 742 1689 3956 8106 2366 257 7261 7897 3283 2765 4430 1839 274 6938 3679 8951 5779 726 5653 4910 6942 4938 1787 9039 1722 9249 3669 6014 4629 3376 5817 2254 4998 769 6105 506 9438 2393 4050 1145 7594 3907 5942 8259 4259 8313 2177 9181 8315 6733 607 8336 385 7560 9218 5288 6652 8588 4783 2099 7946 1778 3802 9997 1565 3384 706 3027 3851 8255 1348 9935 2880 4944 7222 581 3849 5491 8485 9276 8007 4375 341 9134 5007 3523 4074 7933 9771 6592 1660 8880 2024 8545 7225 945 9413 5546 5301 8640 9886 7931 748 2668 6276 6885 6028 8017 4652 2485 1074 662 593 8388 8118 7534 4213 8828 4115 2712 5296 4123 4231 2625 8409 3135 645 2899 6058 9743 2350 9756 3291 1718 679 9267 7165 5993 5242 9976 9974 2771 5400 1383 2962 8188 9074 6612 2271 6051 2010 4565 4379 1694 4158 5249 8182 2032 4078 7101 9475 3004 4808 8948 4364 7514 4448 9866 3848 148 1281 1803 3 5103 3797 5484 5276 9044 1256 1663 7970 8768 1827 6149 1540 843 1161 2910 5521 7826 9964 1181 9195 924 6367 6419 6355 8582 1713 3682 2245 7338 592 2590 4042 2121 6808 6604 2347 5323 8 9776 2049 6548 6203 6074 
15 5037 3884 3787 1 2319 2130 1079 2066 4824 2666 2753 4846 2560 8934 2492 
175 7615 9592 9995 5529 217 3957 8349 4179 1595 1481 895 1632 3977 8062 9648 5104 703 4747 7331 3282 7904 8592 4924 3023 7223 5626 7205 7848 8142 8920 479 6653 937 5665 1252 2949 7936 5380 5534 9302 3781 1701 3727 9936 6569 8885 9009 9933 3702 4632 3870 1723 3737 6017 3714 2538 6678 3460 9824 1734 163 9840 6100 1399 4456 938 331 7166 4026 346 7057 288 1617 8963 9638 3138 1291 9437 5562 1110 4173 5721 4798 2428 1126 3923 6318 2091 2729 3295 5269 560 9545 7425 4887 7687 3896 6337 5228 6999 8776 3209 1998 3685 465 3093 9317 62 2450 3588 4438 7404 5564 2597 8097 4196 8605 3047 8270 8982 2510 6171 6031 4594 9201 4997 9606 7532 2857 1193 4922 5946 2065 9930 6418 7032 3123 9314 5457 3024 3574 7769 287 6327 5891 201 4597 1160 5086 9343 4927 6177 5662 6697 5130 4481 5939 5559 4917 5551 4521 7557 9975 6146 9489 7923 3169 45 3970 6690 4899 2465 9194 2333 696 
16 3856 7898 1989 9961 7102 2256 3675 3600 7074 553 130 8860 5757 247 8943 3729 
64 5895 5255 9494 1871 6243 6041 9066 7842 2806 8633 5404 4554 3191 5819 3230 3228 5750 9889 58 833 5146 4366 9892 925 4791 9571 754 2758 6427 9263 4753 6541 3692 8626 6385 5889 7248 2606 7372 471 4552 1725 982 7862 9780 543 8309 1432 844 353 3064 8518 8857 5432 7482 6629 4055 1220 5999 2185 1022 6067 2287 6492 
1 1247 
197 7505 3198 5180 5504 9129 7871 7106 704 8180 2359 8051 4254 2444 6634 5870 1420 1492 764 418 6530 5782 6585 6407 3840 9582 1883 2027 719 4324 3021 7270 6456 6231 8091 2488 4471 9610 6915 815 6443 1505 2882 6707 7987 4303 3445 5436 6252 562 5555 622 2867 5568 716 8328 7277 3815 1712 9177 5709 8643 2530 4271 1317 4777 7371 973 3337 9094 5026 4398 6531 7733 4161 961 2490 839 2970 710 2132 2669 9761 7519 1285 2571 3814 6890 1330 1977 70 4435 8434 8939 3328 6660 4561 7962 2587 5165 8548 8316 7960 2168 7168 5674 4647 8351 9996 4198 118 6450 4636 2661 3741 8268 3926 5736 8808 1704 8858 5593 2644 5577 7307 1225 9491 1044 2487 1380 3439 7754 2412 7768 1350 9226 1056 8333 7234 2483 6613 899 8077 7792 7158 5812 3323 2102 6720 3763 6982 8908 5751 1310 9486 5947 6948 9634 4702 4417 7527 9735 4822 3100 1910 6441 7918 8542 4955 8714 5566 7078 6202 8335 8964 6701 2670 3853 3077 5673 8752 327 1409 9080 2467 2872 8442 7283 2095 9637 1157 6907 5434 8002 8708 5166 2556 5850 
72 5063 6554 7419 7358 1678 8454 9202 4867 4835 6050 6852 4181 6039 9597 544 1222 624 7600 2720 1142 6463 2801 6822 6819 5989 9245 1516 652 5462 5277 6331 2194 6408 149 6911 1738 5834 2896 3952 8209 595 2912 1438 5573 8489 1217 304 3584 3740 1480 2411 9072 6538 542 272 6462 6083 8208 9887 7215 9320 8547 3375 9932 1641 7867 3999 2337 2008 6784 9269 3248 
78 4412 8771 7096 444 9244 3079 5885 9285 3994 8741 3173 1567 8261 9453 5178 5552 1927 9897 394 5652 5940 2944 5377 5196 5679 2372 7752 5424 757 6187 3699 6627 892 7003 125 76 1630 1037 6362 4925 3368 323 9001 3595 7839 2249 6772 526 6704 8085 946 1026 5598 6334 2673 2192 6437 1925 1140 6263 9431 2972 4676 3007 3825 8378 6158 7128 3338 1122 7998 8555 7463 5208 2000 571 165 6264 
286 1345 9626 2162 4496 9358 6603 1988 1024 2402 7551 5358 7198 6975 532 2236 8833 3275 9060 1929 1575 8310 617 7403 985 1710 5972 2886 3124 7776 8230 8129 6563 2908 6044 5700 7932 3300 9903 4978 9196 6081 6392 6830 8424 7515 9881 7685 6529 7350 3554 7537 7190 8583 2002 8873 4463 2705 6955 4956 9821 4387 2928 3539 8311 6472 6602 3214 2023 409 7055 1798 68 6883 2243 8189 8126 7803 2808 551 5711 714 250 6628 9409 2893 4640 5526 6000 3335 3542 9630 2213 4826 4292 550 1053 5182 5855 8258 2331 8427 3154 334 3681 7229 3688 133 1286 9676 7202 4381 6151 6730 4252 7150 8649 3576 3593 3591 4535 8282 6250 3435 2199 7379 5280 6166 6253 9988 4091 9792 9645 8510 5460 3190 1027 405 7324 2722 5270 9762 3979 282 6989 643 5179 6871 8684 4538 3001 5795 7934 2085 9417 3419 9731 6552 6566 408 2098 2351 1263 641 9063 3744 2113 3888 9526 9704 7541 233 113 8925 4999 4462 2383 4233 5561 9703 6191 9106 8803 2803 3457 5500 9265 8354 612 5756 8950 206 5294 3354 2854 8221 6015 9012 4661 9459 5082 5290 3471 5379 6900 3374 736 8772 4206 1802 4993 4913 9174 3229 2620 3112 8842 4655 5413 6927 9230 4421 2788 4250 2671 3732 2415 4972 7629 6269 4891 2137 626 1679 1496 6685 8802 3611 5342 9621 7031 4540 8513 4048 5454 3538 4442 6844 7173 516 5185 7227 5771 4095 2055 9956 4819 6580 4378 3995 1284 3478 9532 2193 4588 7315 2724 7693 5328 4644 3303 4866 2242 7612 7623 492 3537 998 8440 1367 9506 9507 2149 4237 2532 5173 1533 
141 3311 8343 8893 398 4715 2431 3271 7513 3630 7294 5982 2663 7010 4446 557 1164 5088 1030 6020 5881 219 8108 7327 8376 6416 7985 6343 5315 4591 5958 5836 9238 4382 7152 8213 1462 603 9916 6930 7470 5145 7355 2761 5931 9252 2837 7129 8661 5282 2860 8669 5239 1205 6023 3597 7875 9556 4639 7030 7176 6895 7849 3157 6183 3528 784 5175 939 3885 6218 6370 9853 9018 8132 9401 7893 8068 1801 5549 3548 5922 874 2251 6325 1952 1961 2184 1731 6308 3110 967 9452 3346 3734 462 7387 5567 3672 3691 5776 3286 1698 6070 8740 8325 9051 668 8113 7524 9228 3629 1835 2339 7884 2280 1957 7238 6073 3540 2675 9319 3134 3231 8198 6038 1358 2038 2475 1491 4916 503 3653 412 1443 5581 6494 7926 7825 3280 2768 572 
124 5230 7367 6511 8675 4155 4539 2147 1544 9682 9880 39 3389 555 6711 644 1554 1504 3083 1785 1786 9675 5781 4084 4336 8290 4831 4673 8866 4568 5589 3881 6141 2332 1719 1887 1948 2315 4871 9007 3861 1981 447 8195 4110 4595 1210 6007 5918 2106 4328 9208 1843 5121 2508 2375 3949 3899 9268 2362 2116 2200 3433 1841 3828 2107 7627 9454 5061 5913 424 9233 427 8645 6361 4926 3373 236 3032 9466 9364 1311 9978 2878 3470 4023 5766 6620 5325 7556 9657 4935 7865 7837 7829 835 7328 1224 4064 6622 1960 6216 4174 4837 6300 3565 435 5734 1760 7975 8909 2992 3676 169 7989 9521 841 5797 9280 6651 2163 6065 8710 7177 5429 
77 7533 8069 6843 1706 7874 5194 4309 4768 8677 5646 6674 6280 5765 1986 8032 3378 1799 6291 9097 8151 5516 3217 9778 8847 9064 6719 8944 2993 2804 2434 2476 5420 7814 5073 5759 6121 417 9850 392 9395 6763 8786 8346 743 3430 9534 1112 7318 2696 4991 2594 3165 2723 1874 4860 2051 1405 2323 3796 4919 7374 7815 2084 2715 5426 277 3649 9283 4929 9940 4523 6623 1362 3829 6503 8185 9835 
71 4551 4207 3194 4397 5610 4620 6802 5253 6357 1319 6512 8468 1033 6897 680 3255 4985 1942 9149 197 3978 3810 2464 3638 5149 8724 7711 6008 324 6353 8057 1116 4628 2340 5050 6868 9142 2841 8527 8305 8586 2511 9126 7054 4987 1846 3572 9165 116 7093 1569 5470 261 1606 4202 7678 8123 3269 7012 1099 1036 7343 976 3213 3883 2294 2061 3875 1514 3754 6755 
118 7692 3573 9697 4359 5671 7475 2491 6978 6495 2521 9962 3965 6128 8090 3487 7728 933 7346 9393 395 1513 3287 2846 9885 4102 222 2794 772 6382 146 8456 4453 9036 178 6395 8463 4142 2429 4894 8904 7853 4318 2211 9414 9817 601 295 3991 6601 5849 3502 6239 3385 484 1680 782 6473 797 9861 138 2188 9701 2660 1750 6884 2819 6092 2946 8076 9295 5696 2081 6396 8037 6857 8233 732 7763 3986 7095 1098 9456 6984 6594 5207 9541 5167 915 4731 1301 5505 2913 5222 6726 5688 2166 9170 7285 5793 6246 8461 1388 963 4028 8783 3011 6176 1564 2241 2619 6962 8705 6079 5800 5788 8128 8029 6853 
427 6995 5345 2021 3188 7311 1708 1765 3791 6156 3906 6606 4605 9441 8348 2978 4806 8083 7009 4223 1119 7596 8149 4444 2524 4633 8205 885 9707 1315 3521 792 1700 5168 4989 817 9053 4099 6831 1378 6905 7428 4820 5754 86 7253 2783 7092 4941 3650 1381 5297 9378 4510 547 9261 413 9216 904 9250 9207 6863 6591 6072 1430 7579 7206 9677 2247 3494 1174 1497 2589 6522 1810 5784 2930 9346 6460 24 5114 567 9552 4429 7224 1185 3731 7186 4996 7641 9323 1695 1404 7131 4933 9759 4368 9822 5571 5060 7915 8751 7058 4204 776 4367 5511 1529 1677 9554 8274 5545 2799 6866 2424 5530 6625 1454 2146 4330 2881 5321 2126 1825 4267 6916 7512 7460 6314 9139 9281 8138 3065 2388 2096 5863 4090 6618 8577 4343 1908 709 8358 9662 344 477 3898 8612 528 1605 4526 6549 1774 3340 61 7257 1395 6735 5089 4688 1058 6736 4255 9231 2537 339 2763 5338 8056 6841 7950 8531 5116 9829 8938 2141 8469 5892 7459 3294 4137 1305 9603 3844 4241 8202 9307 4281 4903 7772 266 81 7668 1859 4447 1403 7990 6762 1664 7531 2564 7737 1235 6153 8278 4945 7700 9030 5852 6219 1726 6162 8342 2750 199 4766 8394 8722 440 6616 3240 1833 6646 1545 7390 577 6908 5740 8003 659 4264 7061 8191 842 5586 4739 2145 722 7416 1452 1552 7289 1162 5012 5613 3534 2423 7945 991 9171 5990 9564 1337 4742 7309 8620 735 3277 8015 5675 4053 2618 9495 8826 260 2056 6638 9655 783 7921 3114 3056 5503 579 7603 1614 8781 100 6839 3343 7067 457 1517 8558 2573 6659 4839 337 9569 461 9416 1639 5251 4120 753 6 6159 9694 4624 3260 1968 6695 3178 6148 1519 507 8745 7802 7526 2989 9710 698 9536 8492 6122 7908 928 7487 4762 4293 8712 6197 2561 5339 8248 9005 7697 4143 5570 2335 9394 1800 5640 3319 2398 9501 105 6346 4680 8931 6709 7707 7178 4201 390 7900 1216 5983 3352 9944 3180 6406 2152 5258 4995 556 5655 7877 2662 2917 6313 2795 1073 7469 1994 6061 671 8143 8625 5040 4144 9871 6091 5046 5433 510 7491 931 7132 63 8028 1397 8817 9332 9104 2086 7817 8975 3680 5363 9013 6743 3644 4983 5929 3302 6341 5176 7690 7233 7043 1623 4789 2920 4699 1414 9785 929 4920 7157 2621 4229 9057 5105 5976 3505 4724 2996 6805 6261 8119 1921 642 778 8031 9728 8117 6071 
81 5821 2953 9420 1962 3361 9833 7935 5839 8568 5117 6583 6174 5859 9984 3590 2610 9864 9846 6181 9832 8292 3589 6167 7637 3912 7980 4559 4236 4638 3263 6002 2457 2617 3308 9166 9725 2601 9609 6335 1674 3212 131 7138 5668 5389 9292 1692 2777 5625 1407 7391 8729 7306 3767 1697 6840 7271 3151 3761 6196 2614 9124 7622 5513 7670 8818 1733 157 3238 7221 8503 5232 7426 8706 3284 208 734 2526 508 4192 4495 
27 7795 1201 2068 6087 4150 1429 2999 6036 2916 3121 8133 1628 618 4491 115 4671 8731 7258 4317 7621 7489 5587 8269 1029 5147 2028 8450 
252 9107 6926 4960 9868 5540 6520 4765 4626 1830 3983 1730 6901 5904 5987 2394 3465 3916 6238 3106 7791 738 7164 4257 3915 9344 3836 6950 3053 656 9973 5903 2891 6981 6262 1882 4345 8517 5311 6738 6030 1483 4635 3871 6235 4465 5639 9583 6598 387 4662 4504 4890 672 8721 2708 4008 6575 9342 1842 3182 5832 8763 3892 573 1413 6969 6698 4228 1522 8575 6469 8809 2442 4152 8906 3301 5478 747 2261 8144 6458 5828 8374 8831 995 5681 4015 1992 918 2932 8778 2205 2440 6137 4480 1149 3042 3613 1108 8652 2957 4396 7517 8498 4576 1913 3569 7053 1635 1062 9160 9854 6321 6486 3272 8122 5517 4855 3120 243 2555 7455 3285 7604 5628 3506 2433 4352 6502 7352 4585 3982 9561 4788 514 1262 473 8686 2029 6048 6578 954 4066 5739 3218 7818 8080 8913 7907 1892 5746 7906 9783 7121 9490 9692 5357 1320 8927 5748 3722 9612 5683 5921 9765 3226 788 7020 966 4405 6477 4490 7441 6876 2586 3390 6919 9270 9787 1039 8016 1093 7944 9469 804 6946 7764 523 8385 5229 7072 3063 9972 5787 6692 8699 6475 6773 5755 8042 1282 6551 4370 8657 2092 8161 6097 5376 2231 9967 3624 6959 3040 4097 1493 7834 1447 2407 5183 2278 9300 3834 2936 7878 4748 4337 8134 4706 8264 6648 4522 3163 8882 4404 4107 805 2964 580 3973 2069 2154 5695 8223 6918 1716 1071 9048 3037 9476 9570 1464 3050 
99 4131 6066 5352 3602 5604 7949 1521 3026 2986 1790 3469 9461 6584 625 9845 4940 9451 8974 1465 564 3199 4080 4166 3557 8178 8153 1935 901 4445 9155 8590 1963 3728 6847 3536 9089 1769 728 7410 7139 7882 313 5441 2965 2134 2122 3002 2598 1633 8538 3863 5110 6790 229 9723 7753 4621 1653 993 7793 3598 2830 4346 5553 5120 3700 7805 9702 2171 8599 7492 2392 9127 5805 920 8977 7411 330 3627 7004 2295 7995 545 598 1857 1297 3980 6872 5690 4411 5393 8891 4803 5802 8971 2420 9695 534 9463 
